{
    "ParameterSet": [
        0.10802413523197174,
        0.0005696117877960205,
        -0.0012263506650924683,
        -0.02144305408000946,
        0.09122321009635925,
        0.01844249665737152,
        0.16889648139476776,
        -0.012141495943069458,
        0.08930247277021408,
        -0.06584769487380981,
        0.016556791961193085,
        0.07200304418802261,
        0.13339459896087646,
        0.04081394523382187,
        0.1090695708990097,
        -0.062461644411087036,
        0.04422236979007721,
        -0.06961040943861008,
        0.12005557119846344,
        -0.09059689939022064,
        0.32477790117263794,
        0.13784557580947876,
        0.22584950923919678,
        0.1164044439792633,
        0.3459066152572632,
        0.19470690190792084,
        0.04788962006568909,
        0.3107015788555145,
        0.3236931562423706,
        0.1952451467514038,
        0.0370522141456604,
        0.10026770830154419,
        0.08883063495159149,
        0.1257152110338211,
        0.01577732525765896,
        -0.012126833200454712,
        -0.05238856375217438,
        0.2786540687084198,
        0.355103462934494,
        0.03003641963005066,
        -0.4751099646091461,
        -0.35489600896835327,
        -0.1884458065032959,
        -0.5182806253433228,
        -0.442356675863266,
        -0.23511746525764465,
        -0.24843242764472961,
        -0.2778090834617615,
        -0.4451981782913208,
        -0.40441471338272095,
        -0.40115034580230713,
        -0.22326749563217163,
        -0.6150150299072266,
        -0.5812867283821106,
        -0.45856788754463196,
        -0.3574085831642151,
        -0.35732904076576233,
        -0.20253415405750275,
        -0.48642587661743164,
        0.24343439936637878
    ]
}







